..................
----------------------------------------------------------------------
Ran 18 tests in 0.671s

OK
Name             Stmts   Miss Branch BrPart  Cover   Missing
------------------------------------------------------------
Collatz.py          61      0     32      1    99%   108->110
TestCollatz.py      83      0      0      0   100%
------------------------------------------------------------
TOTAL              144      0     32      1    99%
