1 10 20
100 200 125
201 210 89
900 1000 174
18409 421618 449
658119 131111 509
171219 657062 509
265328 198560 443
892254 520034 525
463747 1672 449
165716 170449 352
754296 560705 509
247527 752783 509
397882 34281 443
145416 69681 375
278257 675364 509
568073 151064 470
389773 763734 509
729182 595462 509
970869 791653 525
636731 331749 509
562940 345477 470
962153 425847 525
26484 734437 509
373515 675705 509
638556 403585 509
499371 944519 525
641222 830994 504
35951 960742 525
638139 15613 509
987666 131191 525
260797 855326 525
475705 529992 470
335613 509511 449
582423 752983 509
215329 92773 383
765113 444048 509
919401 110570 525
98010 33459 351
313632 407725 441
910147 965539 507
386507 723064 509
958118 747233 525
553303 735972 509
936340 342784 525
297833 266259 407
541775 48486 470
815778 848449 525
204128 815072 509
301810 786679 509
25356 369073 443
458757 921967 525
826661 645551 504
849836 749219 525
256134 689512 509
113129 807143 509
694051 719541 504
446049 217104 449
667350 958184 525
890270 756861 525
247158 166436 443
898029 27853 525
200388 671354 509
527369 326674 470
892596 187419 525
593539 770443 509
81143 144254 375
604420 727163 509
912584 42815 525
644670 789341 504
803983 297176 509
181143 441564 449
452724 731733 509
497774 112835 449
904742 87827 525
687391 738351 504
737934 247725 509
841479 167719 525
613573 128129 470
371639 93011 443
969933 618375 525
253861 873831 525
57071 146453 375
213679 215890 373
153333 131538 375
556001 17941 470
606692 601032 403
175281 971183 525
724987 996161 525
972740 551702 525
216568 676460 509
770332 942305 525
350552 463405 449
777470 495123 509
939663 536561 525
488815 208807 449
927959 857898 476
709156 216813 509
343820 670771 509
503548 39579 449
33005 58621 340
79605 817380 509
996955 512129 525
360638 310014 441
463540 649104 509
338929 843102 525
149875 793048 509
678259 23176 509
539461 867865 525
971705 452535 525
624792 612544 447
730712 881671 525
732195 768370 468
955617 60288 525
828049 223857 509
163480 487791 449
757782 762332 380
642324 937231 525
62755 939646 525
195863 57420 383
129711 401665 443
182518 413011 449
109198 988424 525
258886 232306 381
911885 410164 525
972164 945801 458
240115 2328 443
5650 506339 449
359749 409384 436
245663 299920 407
642779 889294 525
313205 345866 384
965891 688511 525
175471 673014 509
211512 654885 509
697336 362129 509
888896 781604 525
690248 666708 398
166409 12471 383
749676 991390 525
266057 414751 449
450578 910770 525
697933 690849 442
448338 908924 525
170884 508929 449
119681 489598 449
64585 961311 525
515619 793419 509
382566 947257 525
629282 729904 504
765327 653229 504
599901 73541 470
803626 194733 509
905086 679509 525
852632 852652 282
1 999999 525
