1 10 20
100 200 125
201 210 89
900 1000 174
687 899 179
346 1000 179
911 694 179
965 950 130
109 848 171
97 840 171
888 352 179
842 825 135
819 298 171
627 257 144
536 175 144
274 641 144
511 664 145
899 452 179
571 602 119
719 283 171
615 887 179
891 937 174
677 625 145
329 451 134
727 975 179
696 535 145
988 919 174
301 263 123
362 88 144
122 378 144
807 490 171
223 444 144
701 749 171
721 734 140
450 968 179
29 272 128
339 451 134
782 914 179
211 804 171
580 461 142
98 617 144
464 736 171
464 192 144
521 249 144
908 318 179
220 543 144
651 911 179
667 679 145
849 362 171
582 840 171
472 563 142
451 380 134
578 601 119
256 17 128
873 427 179
128 721 171
129 845 171
739 100 171
839 553 171
213 272 128
550 486 142
486 162 144
597 294 144
869 680 171
768 676 171
520 877 179
87 715 171
854 213 171
88 87 31
62 203 125
216 613 144
47 828 171
867 258 171
161 319 131
520 523 124
81 768 171
630 824 171
280 375 144
873 65 179
110 416 144
953 845 179
906 121 179
729 640 171
892 768 179
777 705 153
517 10 144
442 420 116
58 726 171
469 880 179
246 557 144
736 151 171
763 992 179
688 922 179
791 347 171
483 874 179
140 92 122
789 495 171
38 337 144
463 187 144
498 731 171
475 236 144
487 402 142
298 256 123
996 596 179
900000 1000000 507
500000 600000 470
400000 500000 449
706858 625295 509
345875 255415 407
930578 366792 525
913429 220571 525
282207 486295 449
453092 454682 369
941874 207621 525
523428 951709 525
710813 883111 525
999341 523742 525
