1 10 20
100 200 125
201 210 89
900 1000 174
230 1345 182
5432 10293 262
3200 3400 181
70000 90000 351
223456 766583 509
991238 23 525
4384 237568 443
2384 23 183
43458 12 324
695847 22343 509
87234 102 351
4316 23457 279
968472 19284 525
47 22 112
6 110 119
1 44 112
284 4657 238
97836 163548 383
354019 37254 443
3519 253 217
53 3 112
50001 50230 234
333333 333333 154
800 1000 179
1001 1999 182
800 1999 182
1 12 20
434 22348 279
457326 123 449
496756 343 449
798962 1 509
483746 34756 449
1192 384574 443
23 123 119
44 23 112
67 67 28
999999 1 525
238 1236 182
43968 12121 324
1001 2001 182
444001 333999 449
123 3457 217
55973 112642 354
667 123321 354
88234 112842 354
22 234 128
1 2 2
857365 246 525
234 1127 179
23 2 21
877362 110000 525
37465 1232 324
244568 123 443
297 1200 182
562 61234 340
4234 12869 268
23 1928 182
4307 102394 351
50987 2387 324
350879 239753 441
45878 293845 443
658043 297376 509
70895 123498 354
5608 192749 383
9 19278 279
460645 1826 449
3948 194826 383
570 19283 279
35068 193785 383
35978 1862 324
4607 18264 279
46085 192756 383
7069 18365 279
46089 23 324
350869 12 443
35987 197235 383
65086 19827 340
9348 19273 279
645 12978 268
435 293586 443
234 19726 279
56 928365 525
780857 12364 509
45809 293758 443
568 2134 182
6580 249386 443
7890 2083 262
540 2846 209
8079 4 262
6498 123 262
65089 238 340
4608 123875 354
6598 321 262
468 23587 282
5698 312 238
568 45 144
5608 23 238
34058 23947 308
5608 234 238
46898 128364 354
402 182 144
65832 1275 340
40624 575749 470
560 21836 279
6454 1257 262
40385 12875 324
546 12753 268
3497 324 217
54 1268 182
549 83642 351
248 138956 354
3597 238565 443
247 13974 276
