............
----------------------------------------------------------------------
Ran 12 tests in 1.330s

OK
Name             Stmts   Miss Branch BrPart  Cover   Missing
------------------------------------------------------------
Collatz.py          42      0     14      0   100%
TestCollatz.py      56      0      0      0   100%
------------------------------------------------------------
TOTAL               98      0     14      0   100%
