.............
----------------------------------------------------------------------
Ran 13 tests in 0.502s

OK
Name             Stmts   Miss Branch BrPart  Cover   Missing
------------------------------------------------------------
Collatz.py          54      0     20      0   100%
TestCollatz.py      60      0      0      0   100%
------------------------------------------------------------
TOTAL              114      0     20      0   100%
