1 10 20
100 200 125
201 210 89
900 1000 174
1 1 1
1 9 20
9 17 20
9 18 21
1 16 20
2 16 20
999990 999999 259
16 16 5
10 10 7
9 10 20
1 999999 525
489711 490994 320
4800 9844 262
242289 251868 350
276592 279134 389
227802 236713 443
595022 595470 266
262669 268363 407
457449 464681 444
435216 443269 400
989917 994316 352
137017 144143 375
765319 768532 468
302811 303998 340
385541 389813 436
80748 87610 333
116789 125630 336
769533 773874 393
348081 353393 379
547848 555990 421
101209 110504 354
894143 898672 370
436724 437431 387
296485 297268 327
381073 382767 374
134884 135886 344
786514 796508 468
702304 705632 504
795310 803957 468
706740 709291 349
646982 648539 341
412092 417633 387
291355 296512 358
832134 839515 525
589648 597931 403
199725 209434 373
846434 846679 313
914059 915552 370
311567 319172 384
84555 87792 333
883906 893343 445
29498 31547 285
424187 430217 374
346648 351515 379
157910 158670 321
285481 287112 314
455899 463341 444
794510 796268 468
646043 650925 385
688367 693892 442
292756 295325 358
572908 580327 390
479818 480139 351
109338 117643 349
689546 695263 442
12352 12679 263
245042 250862 350
481469 484903 382
493058 493078 214
881596 891058 445
409569 418498 449
699771 701710 411
479245 484150 413
768881 769082 331
328809 338723 366
890490 899743 370
788137 791980 406
970856 976877 383
72719 82282 351
968376 973870 458
534116 535835 346
329312 332001 353
861925 866210 388
185834 189326 347
623658 625337 385
297743 305774 371
609369 614206 354
722729 727664 380
829495 834527 419
970421 971865 458
108724 109948 310
75046 84341 351
57008 58989 304
139808 147629 375
33157 33271 236
657145 657612 323
285060 290858 389
633620 641897 416
810556 813354 406
85584 87116 333
212153 218923 386
776395 780203 437
339182 347886 441
884085 885057 295
775548 779137 437
514862 521339 439
174944 176253 334
272350 279893 389
445677 447125 325
715402 724605 411
661438 661557 261
870013 876389 432
676067 684339 380
542250 548262 452
76077 79795 351
941518 950585 383
857232 865456 388
98892 106232 341
401893 403767 343
145451 149926 357
651617 659722 429
608572 608660 235
472123 480341 382
610977 620124 447
599481 606597 403
133543 141960 344
66263 72245 325
264015 269568 345
127350 134394 344
153981 160421 383
281552 286021 376
613236 620851 447
401975 405151 343
697912 700743 367
637553 645688 416
690366 696455 442
283250 283677 358
465894 474008 413
456841 465170 444
679836 687950 398
772372 780495 437
953407 958651 383
925736 929034 476
959256 968256 414
454832 462018 444
887733 893387 401
819751 823449 450
18146 20764 274
179977 185559 365
868206 877954 432
509054 517500 470
373370 374983 348
216419 219025 342
251472 251954 257
570143 577645 390
821541 830054 419
199756 201426 342
956644 965896 414
4334 10501 262
515155 521020 439
438088 442998 400
728110 737079 424
365650 366935 335
336834 338842 366
461588 468202 413
866987 872186 432
507637 508469 364
638437 639227 341
360974 367025 361
556360 557448 346
865797 871752 388
379391 384207 379
869009 877317 432
662785 670082 442
186574 193306 360
199676 200413 342
309188 315101 384
415020 422812 387
555982 562502 359
530164 530389 271
435453 436312 325
900296 902798 401
286917 288747 389
342638 346217 441
536381 537421 377
473173 474256 382
600853 602019 403
546814 554964 421
805796 809058 406
38131 40829 306
302739 305311 340
867691 874095 432
411633 418649 387
963925 973861 458
446360 451560 387
220236 222005 355
